{
  "name": "menge",
  "description": "Menge's translation of the bible on the command line.",
  "version": "0.3.2",
  "perl": "6.*",
  "authors": [
    "Silas Vedder"
  ],
  "auth": "Write me!",
  "depends": [],
  "build-depends": [],
  "test-depends": [],
  "provides": {
    "Data": "lib/Data.rakumod",
    "Display": "lib/Display.rakumod",
    "Logic": "lib/Logic.rakumod"
  },
  "resources": [
    "menge.xml"
  ],
  "license": "MIT",
  "source-url": "Write me!"
}